customer_id,firstname,rfm
0,,55
154,CAROLINE                                                                                                                                                                                                                                                       ,40
152,CAROLINE                                                                                                                                                                                                                                                       ,35
189,DAVID                                                                                                                                                                                                                                                          ,30
41,EDMUND                                                                                                                                                                                                                                                         ,30
373,EDITH                                                                                                                                                                                                                                                          ,30
153,CAROLINE                                                                                                                                                                                                                                                       ,30
166,ROBERT                                                                                                                                                                                                                                                         ,30
182,IVAN                                                                                                                                                                                                                                                           ,30
76,PAUL                                                                                                                                                                                                                                                           ,30
367,EDWARD                                                                                                                                                                                                                                                         ,30
366,EDWARD                                                                                                                                                                                                                                                         ,30
362,BENNETT                                                                                                                                                                                                                                                        ,30
426,                                                                                                                                                                                                                                                               ,30
312,                                                                                                                                                                                                                                                               ,30
29,JEFF                                                                                                                                                                                                                                                           ,30
263,T.                                                                                                                                                                                                                                                             ,30
260,DAVID                                                                                                                                                                                                                                                          ,30
239,KENNETH                                                                                                                                                                                                                                                        ,30
253,DOROTHY                                                                                                                                                                                                                                                        ,30
200,WILLIAM                                                                                                                                                                                                                                                        ,30
412,JANE                                                                                                                                                                                                                                                           ,30
449,CAROL                                                                                                                                                                                                                                                          ,25
10,HANNE                                                                                                                                                                                                                                                          ,25
18,HENRY                                                                                                                                                                                                                                                          ,25
23,LINDA                                                                                                                                                                                                                                                          ,25
28,WENDY                                                                                                                                                                                                                                                          ,25
100,NICK                                                                                                                                                                                                                                                           ,25
107,DAWNE                                                                                                                                                                                                                                                          ,25
115,ROBERT                                                                                                                                                                                                                                                         ,25
132,ROCCO                                                                                                                                                                                                                                                          ,25
143,EUGENE                                                                                                                                                                                                                                                         ,25
151,SHEILA                                                                                                                                                                                                                                                         ,25
172,CARL                                                                                                                                                                                                                                                           ,25
180,F.                                                                                                                                                                                                                                                             ,25
183,LOUIS                                                                                                                                                                                                                                                          ,25
187,KATHLEEN                                                                                                                                                                                                                                                       ,25
191,THOMAS                                                                                                                                                                                                                                                         ,25
207,ROBERT                                                                                                                                                                                                                                                         ,25
211,ERIC                                                                                                                                                                                                                                                           ,25
214,ANNE                                                                                                                                                                                                                                                           ,25
219,JOAN                                                                                                                                                                                                                                                           ,25
227,ED                                                                                                                                                                                                                                                             ,25
228,DEBORAH                                                                                                                                                                                                                                                        ,25
238,CAREY                                                                                                                                                                                                                                                          ,25
245,GARRY                                                                                                                                                                                                                                                          ,25
269,CONNIE                                                                                                                                                                                                                                                         ,25
270,EILEEN                                                                                                                                                                                                                                                         ,25
272,STANLEY                                                                                                                                                                                                                                                        ,25
304,LORRAINE                                                                                                                                                                                                                                                       ,25
331,NAOMI                                                                                                                                                                                                                                                          ,25
361,JOSEPH                                                                                                                                                                                                                                                         ,25
374,EDITH                                                                                                                                                                                                                                                          ,25
375,MORT                                                                                                                                                                                                                                                           ,25
395,VICTOR                                                                                                                                                                                                                                                         ,25
410,WILLIAM                                                                                                                                                                                                                                                        ,25
413,MARVIN                                                                                                                                                                                                                                                         ,25
425,ROBERT                                                                                                                                                                                                                                                         ,25
434,FRED                                                                                                                                                                                                                                                           ,25
448,CAROL                                                                                                                                                                                                                                                          ,25
407,HERMAN                                                                                                                                                                                                                                                         ,20
436,ROBERT                                                                                                                                                                                                                                                         ,20
31,ALAN                                                                                                                                                                                                                                                           ,20
275,THOMAS                                                                                                                                                                                                                                                         ,20
292,CHARLES                                                                                                                                                                                                                                                        ,20
299,S.                                                                                                                                                                                                                                                             ,20
302,PETER                                                                                                                                                                                                                                                          ,20
446,PAT                                                                                                                                                                                                                                                            ,20
305,HOWARD                                                                                                                                                                                                                                                         ,20
105,SUZANNE                                                                                                                                                                                                                                                        ,20
324,F.                                                                                                                                                                                                                                                             ,20
418,MEL                                                                                                                                                                                                                                                            ,20
350,EVAN                                                                                                                                                                                                                                                           ,20
169,JACOB                                                                                                                                                                                                                                                          ,20
171,CARL                                                                                                                                                                                                                                                           ,20
352,JULIANA                                                                                                                                                                                                                                                        ,20
353,JULIANA                                                                                                                                                                                                                                                        ,20
167,                                                                                                                                                                                                                                                               ,20
360,ALLAN                                                                                                                                                                                                                                                          ,20
447,PAT                                                                                                                                                                                                                                                            ,20
138,S.                                                                                                                                                                                                                                                             ,20
190,JULIA                                                                                                                                                                                                                                                          ,20
83,KENNETH                                                                                                                                                                                                                                                        ,20
130,EDITH                                                                                                                                                                                                                                                          ,20
205,F.                                                                                                                                                                                                                                                             ,20
80,KENNETH                                                                                                                                                                                                                                                        ,20
79,KENNETH                                                                                                                                                                                                                                                        ,20
73,ROBERT                                                                                                                                                                                                                                                         ,20
218,JOAN                                                                                                                                                                                                                                                           ,20
17,MADELINE                                                                                                                                                                                                                                                       ,20
429,ARLENE                                                                                                                                                                                                                                                         ,20
379,HOWARD                                                                                                                                                                                                                                                         ,20
236,CAREY                                                                                                                                                                                                                                                          ,20
16,FRANK                                                                                                                                                                                                                                                          ,20
129,JAMES                                                                                                                                                                                                                                                          ,20
405,FRANCES                                                                                                                                                                                                                                                        ,20
127,LEON                                                                                                                                                                                                                                                           ,20
259,JOAN                                                                                                                                                                                                                                                           ,20
125,ILENE                                                                                                                                                                                                                                                          ,20
116,JOHN                                                                                                                                                                                                                                                           ,20
